%YAML 1.1
%TAG !u! tag:unity3d.com,2011:
--- !u!114 &11400000
MonoBehaviour:
  m_ObjectHideFlags: 0
  m_CorrespondingSourceObject: {fileID: 0}
  m_PrefabInstance: {fileID: 0}
  m_PrefabAsset: {fileID: 0}
  m_GameObject: {fileID: 0}
  m_Enabled: 1
  m_EditorHideFlags: 0
  m_Script: {fileID: 11500000, guid: 468a46d0ae32c3544b7d98094e6448a9, type: 3}
  m_Name: AddressableAssetSettings
  m_EditorClassIdentifier: 
  m_DefaultGroup: c232218a6714d114983cd7f565e5a3b1
  m_OptimizeCatalogSize: 0
  m_BuildRemoteCatalog: 1
  m_BundleLocalCatalog: 0
  m_DisableCatalogUpdateOnStart: 0
  m_IgnoreUnsupportedFilesInBuild: 0
  m_UniqueBundleIds: 0
  m_maxConcurrentWebRequests: 500
  m_ContiguousBundles: 0
  m_RemoteCatalogBuildPath:
    m_Id: c8defe7c78fe1b44b95b7be21d470ca3
  m_RemoteCatalogLoadPath:
    m_Id: 8dc0518c11523494dbac0d766d83d039
  m_overridePlayerVersion: 
  m_GroupAssets:
  - {fileID: 11400000, guid: 73735c8f73e525c46961d733e22e1a45, type: 2}
  - {fileID: 11400000, guid: 7f5759bffccbaa04db41187261443d0e, type: 2}
  m_BuildSettings:
    m_CompileScriptsInVirtualMode: 0
    m_CleanupStreamingAssetsAfterBuilds: 1
    m_LogResourceManagerExceptions: 1
    m_BundleBuildPath: Temp/com.unity.addressables/AssetBundles
  m_ProfileSettings:
    m_Profiles:
    - m_InheritedParent: 
      m_Id: 9f170b893d423c14bbee382ed5593b21
      m_ProfileName: Default
      m_Values:
      - m_Id: 06e65b34c001a6a40a2c1c969bdd51dc
        m_Value: '[UnityEditor.EditorUserBuildSettings.activeBuildTarget]'
      - m_Id: c8defe7c78fe1b44b95b7be21d470ca3
        m_Value: '[UnityEngine.AddressableAssets.Addressables.BuildPath]/[BuildTarget]'
      - m_Id: 8dc0518c11523494dbac0d766d83d039
        m_Value: '{UnityEngine.AddressableAssets.Addressables.RuntimePath}/[BuildTarget]'
      - m_Id: 32096aea1a8fe834c91167ad4e153075
        m_Value: ServerData/[BuildTarget]
      - m_Id: e788dc3088916e24db9c97b25114d526
        m_Value: http://localhost/[BuildTarget]
    - m_InheritedParent: 
      m_Id: e3493f4d54a2ec448829e566d00e0a7b
      m_ProfileName: StandaloneWindows
      m_Values:
      - m_Id: 06e65b34c001a6a40a2c1c969bdd51dc
        m_Value: StandaloneWindows
      - m_Id: c8defe7c78fe1b44b95b7be21d470ca3
        m_Value: '[UnityEngine.Application.dataPath]/Mods/[UnityEngine.Application.productName]/StandaloneWindows'
      - m_Id: 8dc0518c11523494dbac0d766d83d039
        m_Value: '{UnityEngine.Application.persistentDataPath}/Mods/[UnityEngine.Application.productName]/StandaloneWindows'
      - m_Id: 32096aea1a8fe834c91167ad4e153075
        m_Value: ServerData/[BuildTarget]
      - m_Id: e788dc3088916e24db9c97b25114d526
        m_Value: http://localhost/[BuildTarget]
    - m_InheritedParent: 
      m_Id: 26b3a01a2edffe742b573be930cad265
      m_ProfileName: Android
      m_Values:
      - m_Id: 06e65b34c001a6a40a2c1c969bdd51dc
        m_Value: Android
      - m_Id: c8defe7c78fe1b44b95b7be21d470ca3
        m_Value: '[UnityEngine.Application.dataPath]/Mods/[UnityEngine.Application.productName]/Android'
      - m_Id: 8dc0518c11523494dbac0d766d83d039
        m_Value: '{UnityEngine.Application.persistentDataPath}/Mods/[UnityEngine.Application.productName]/Android'
      - m_Id: 32096aea1a8fe834c91167ad4e153075
        m_Value: ServerData/[BuildTarget]
      - m_Id: e788dc3088916e24db9c97b25114d526
        m_Value: http://localhost/[BuildTarget]
    m_ProfileEntryNames:
    - m_Id: 06e65b34c001a6a40a2c1c969bdd51dc
      m_Name: BuildTarget
      m_InlineUsage: 0
    - m_Id: c8defe7c78fe1b44b95b7be21d470ca3
      m_Name: LocalBuildPath
      m_InlineUsage: 0
    - m_Id: 8dc0518c11523494dbac0d766d83d039
      m_Name: LocalLoadPath
      m_InlineUsage: 0
    - m_Id: 32096aea1a8fe834c91167ad4e153075
      m_Name: RemoteBuildPath
      m_InlineUsage: 0
    - m_Id: e788dc3088916e24db9c97b25114d526
      m_Name: RemoteLoadPath
      m_InlineUsage: 0
    m_ProfileVersion: 1
  m_LabelTable:
    m_LabelNames:
    - default
  m_SchemaTemplates: []
  m_GroupTemplateObjects:
  - {fileID: 11400000, guid: 24afe78d2efd55d47acaca9f7af29940, type: 2}
  m_InitializationObjects: []
  m_CertificateHandlerType:
    m_AssemblyName: 
    m_ClassName: 
  m_ActivePlayerDataBuilderIndex: 3
  m_DataBuilders:
  - {fileID: 11400000, guid: 55c41d49d1922c94fa679227084a448d, type: 2}
  - {fileID: 11400000, guid: 7feedaf59aac5f64d89837cd2dd90b43, type: 2}
  - {fileID: 11400000, guid: 7968e5f553b021a4daa5f474e11d6400, type: 2}
  - {fileID: 11400000, guid: a79d6b9a81d59e846acdabe4c7666e0c, type: 2}
  m_ActiveProfileId: e3493f4d54a2ec448829e566d00e0a7b
  m_HostingServicesManager:
    m_HostingServiceInfos: []
    m_Settings: {fileID: 11400000}
    m_NextInstanceId: 0
    m_RegisteredServiceTypeRefs: []
